<?xml version="1.0" encoding="UTF-8" standalone="no"?>
<svg
   width="50"
   height="50"
   viewBox="0 0 50 50"
   class="brand-logo-dfk"
   version="1.1"
   id="svg10"
   sodipodi:docname="dlfkultur.svg"
   inkscape:version="1.2.1 (9c6d41e410, 2022-07-14)"
   xmlns:inkscape="http://www.inkscape.org/namespaces/inkscape"
   xmlns:sodipodi="http://sodipodi.sourceforge.net/DTD/sodipodi-0.dtd"
   xmlns="http://www.w3.org/2000/svg"
   xmlns:svg="http://www.w3.org/2000/svg">
  <defs
     id="defs14" />
  <sodipodi:namedview
     id="namedview12"
     pagecolor="#ffffff"
     bordercolor="#666666"
     borderopacity="1.0"
     inkscape:showpageshadow="2"
     inkscape:pageopacity="0.0"
     inkscape:pagecheckerboard="0"
     inkscape:deskcolor="#d1d1d1"
     showgrid="false"
     inkscape:zoom="1.9027601"
     inkscape:cx="89.081121"
     inkscape:cy="47.29971"
     inkscape:window-width="1280"
     inkscape:window-height="723"
     inkscape:window-x="0"
     inkscape:window-y="0"
     inkscape:window-maximized="1"
     inkscape:current-layer="svg10" />
  <polygon
     points="0,0 0,50 50,50 50,0 "
     fill="#ff6400"
     id="polygon2" />
  <path
     fill="rgba(255,255,255,1)"
     d="M 41,22.2 H 11 v 6.5 H 41 Z M 11,18.9 H 38.2 V 14.7 H 11 Z m 0,-7.1 H 30.7 V 9 H 11 Z M 36.3,31.9 H 11 v 3.8 H 36.3 Z M 30.7,41 H 11 v -2.4 h 19.7 z"
     id="path6"
     style="fill:#ffffff;fill-opacity:1" />
</svg>
