<?xml version="1.0" encoding="UTF-8" standalone="no"?>
<!-- Created with Inkscape (http://www.inkscape.org/) -->

<svg
   width="512"
   height="512"
   viewBox="0 0 512 512"
   version="1.1"
   id="svg5"
   inkscape:version="1.2 (dc2aedaf03, 2022-05-15)"
   sodipodi:docname="logo.svg"
   inkscape:export-filename="logo-512.png"
   inkscape:export-xdpi="96"
   inkscape:export-ydpi="96"
   xmlns:inkscape="http://www.inkscape.org/namespaces/inkscape"
   xmlns:sodipodi="http://sodipodi.sourceforge.net/DTD/sodipodi-0.dtd"
   xmlns="http://www.w3.org/2000/svg"
   xmlns:svg="http://www.w3.org/2000/svg">
  <sodipodi:namedview
     id="namedview7"
     pagecolor="#ffffff"
     bordercolor="#666666"
     borderopacity="1.0"
     inkscape:pageshadow="2"
     inkscape:pageopacity="0.0"
     inkscape:pagecheckerboard="0"
     inkscape:document-units="px"
     showgrid="false"
     inkscape:zoom="0.64357766"
     inkscape:cx="306.87827"
     inkscape:cy="282.79415"
     inkscape:window-width="1280"
     inkscape:window-height="723"
     inkscape:window-x="0"
     inkscape:window-y="0"
     inkscape:window-maximized="1"
     inkscape:current-layer="layer1"
     inkscape:deskcolor="#d1d1d1"
     inkscape:showpageshadow="2" />
  <defs
     id="defs2" />
  <g
     inkscape:label="Ebene 1"
     inkscape:groupmode="layer"
     id="layer1">
    <ellipse
       style="fill:#1e9d8b;fill-opacity:1;stroke:#e9f2c7;stroke-width:20;stroke-miterlimit:4;stroke-dasharray:none;stroke-dashoffset:0"
       id="path846"
       cx="256"
       cy="256"
       rx="246"
       ry="246.0018" />
    <text
       xml:space="preserve"
       style="font-style:normal;font-variant:normal;font-weight:normal;font-stretch:normal;font-size:408.411px;line-height:1.25;font-family:'Patua One';-inkscape-font-specification:'Patua One, Normal';font-variant-ligatures:normal;font-variant-caps:normal;font-variant-numeric:normal;font-variant-east-asian:normal;fill:#e9f2c7;fill-opacity:1;stroke:none;stroke-width:0.999993;stroke-opacity:1"
       x="126.73792"
       y="396.90179"
       id="text1582"><tspan
         sodipodi:role="line"
         id="tspan1580"
         x="126.73792"
         y="396.90179"
         style="font-style:normal;font-variant:normal;font-weight:normal;font-stretch:normal;font-size:408.411px;font-family:'Patua One';-inkscape-font-specification:'Patua One, Normal';font-variant-ligatures:normal;font-variant-caps:normal;font-variant-numeric:normal;font-variant-east-asian:normal;fill:#e9f2c7;fill-opacity:1;stroke:none;stroke-width:0.999993;stroke-opacity:1">G</tspan></text>
  </g>
</svg>
